"Wordwide","pool.ntp.org"
"Asia","asia.pool.ntp.org"
"Europe","europe.pool.ntp.org"
"North America","north-america.pool.ntp.org"
"Oceania","oceania.pool.ntp.org"
"South America","south-america.pool.ntp.org"